0;Chips;0;50
1;M&Ms;5;200
2;Snickers;5;150
3;RedBull;10;200
4;Water;7;50
5;Coca-Cola;12;150
6;7Up;13;150
7;Guarana;18;150
8;Chiclete;4;50
9;Hals;6;100
10;Cake;15;150
11;Bounty;2;150
12;Lion;14;150
13;KitKat;19;150
14;Tea;12;50
15;Coffee;7;50